{
  "images" : [
    {
      "idiom" : "ipad",
      "scale" : "1x",
      "filename" : "iOS Simulator Screen shot 29 Jan 2014, 12.29.32 PM.png"
    },
    {
      "idiom" : "ipad",
      "scale" : "2x",
      "filename" : "iOS Simulator Screen shot 29 Jan 2014, 12.33.14 PM.png"
    }
  ],
  "info" : {
    "version" : 1,
    "author" : "xcode"
  }
}